2° Periodo/AC_1/Guias/Guia 09/Verilog/Guia_0903.vcd
$date
	Sun Sep 29 19:21:57 2024
$end
$version
	Icarus Verilog
$end
$timescale
	1s
$end
$scope module Guia_0903 $end
$var wire 1 ! clock $end
$upscope $end
$scope module Guia_0903 $end
$var wire 1 " p1 $end
$upscope $end
$enddefinitions $end
$comment Show the parameter values. $end
$dumpall
$end
#0
$dumpvars
x"
0!
$end
#12
1"
1!
#24
0!
#36
1!
0"
#48
0!
#60
1!
#72
0!
#84
1!
1"
#96
0!
#108
1!
1"
#120
0!
#132
1!
0"
#144
0!
#156
1!
#168
0!
#180
1!
1"
#192
0!
#204
1!
1"
#216
0!
#228
1!
0"
#240
0!
#252
1!
#264
0!
#276
1!
1"
#288
0!
#300
1!
1"
#312
0!
#324
1!
0"
#336
0!
#348
1!
#360
0!
#372
1!
1"
#384
0!
#396
1!
1"
#408
0!
#420
1!
0"
#432
0!
#444
1!
#456
0!
#468
1!
1"
